[
                {"lob": "all",    "url":"https://select.mercer.com/ps/82190/rss/"},
                {"lob": "health", "url":"https://select.mercer.com/hb/ps/91658/rss/"},
                {"lob": "wealth", "url":"https://select.mercer.com/ret/ps/93858/rss/"},
                {"lob": "career", "url":"https://select.mercer.com/wc/ps/182558/rss/"}
]